{
  "version": "14.0.0",
  "vulnerabilities": [
    {
      "id": "5829702d5bdc3fa658727dbfd49e587da89fbfad54867a1d4097ae4d7e1ff275",
      "category": "secret_detection",
      "name": "Test for Raw Custom Rulesets",
      "message": "Test for Raw Custom Rulesets detected; please remove and revoke it if this is a leak.",
      "description": "Test for Raw Custom Rulesets",
      "cve": "main.php:19bd5668b8cded7ffccee2676e912af441fc661448cee00de00bec2063b07205:Test for Raw Custom Rulesets",
      "severity": "Critical",
      "confidence": "Unknown",
      "raw_source_code_extract": "Custom Raw Ruleset Test",
      "scanner": {
        "id": "gitleaks",
        "name": "Gitleaks"
      },
      "location": {
        "file": "main.php",
        "commit": {
          "sha": "0000000"
        },
        "start_line": 14,
        "end_line": 14
      },
      "identifiers": [
        {
          "type": "gitleaks_rule_id",
          "name": "Gitleaks rule ID Test for Raw Custom Rulesets",
          "value": "Test for Raw Custom Rulesets"
        }
      ]
    }
  ],
  "remediations": [],
  "scan": {
    "scanner": {
      "id": "gitleaks",
      "name": "Gitleaks",
      "url": "https://github.com/zricethezav/gitleaks",
      "vendor": {
        "name": "GitLab"
      },
      "version": "8.1.3"
    },
    "type": "secret_detection",
    "start_time": "2021-12-09T17:30:34",
    "end_time": "2021-12-09T17:30:34",
    "status": "success"
  }
}
